TwitterDMTools
…
Whilst the default stop words dictionary has removed the majority of unnecessary words for analysis, some still remain. We will start by understanding the context of the word amp and assess whether it should remain in the data set, to do this the tweetContext() function can be used. The function takes an input of the desired word to be contextualised and the original raw data frame.

#find the context of the word "amp"
SpecificWordContext<-tweetContext(tweetsDF,"amp")
SpecificWordContext
#> # A tibble: 166 x 1
#>    text                                                                    
#>    <chr>                                                                   
#>  1 I don't give a shit if the history books don't say it, I don't care if 
#>  2 "Trump's Irish Golf Resort is affected by flooding &amp; severe erosion
#>  3 I don't give a shit if the history books don't say it, I don't care if 
#>  4 "63 million of us that voted for Trump should consider filing our own C
#>  5 "Dems did more for America in last 2 weeks than Trump has in 2 years:\n
#>  6 Debates between Trump and Biden will be laughingly dull. Trump: I'm run
#>  7 Despite the most hostile and corrupt media in the history of American p
#>  8 Thing I missed on the timing of #SlowWalker before was I didn't underst
#>  9 "@jilevin I hope not. How about choosing someone w/o baggage this time?
#> 10 "Why is @realDonaldTrump pictured w/ the founder of a spa busted in a h
#> #  with 156 more rows
…
